%YAML 1.1
%TAG !u! tag:unity3d.com,2011:
--- !u!1045 &1
EditorBuildSettings:
  m_ObjectHideFlags: 0
  serializedVersion: 2
  m_Scenes:
  - enabled: 1
    path: Assets/Scenes/StartScene.unity
    guid: 285d4b61016afcc4ea90a598e4e1dfd7
  - enabled: 1
    path: Assets/Scenes/OnlineScene.unity
    guid: 88a329904d002b647b0b8c0017ecc338
  m_configObjects: {}
